R과 통계분석, 4판 - 2 데이터 프레임 다루기
…
5. 패키지 MASS의 데이터 프레임 Cars93는 1993년 미국에서 판매된 93종류 자동차에 대한 자료가 입력되어 있는 전통적 데이터 프레임이다.

1)  Cars93의 모든 변수의 처음 3행 자료를 tibble의 형식으로 출력하라.

Code

> data(Cars93, package = "MASS")
> as_tibble(Cars93) |> 
+   print(n = 3, width = Inf)
# A tibble: 93 × 27
  Manufacturer Model   Type    Min.Price Price Max.Price MPG.city MPG.highway
  <fct>        <fct>   <fct>       <dbl> <dbl>     <dbl>    <int>       <int>
1 Acura        Integra Small        12.9  15.9      18.8       25          31
2 Acura        Legend  Midsize      29.2  33.9      38.7       18          25
3 Audi         90      Compact      25.9  29.1      32.3       20          26
  AirBags            DriveTrain Cylinders EngineSize Horsepower   RPM
  <fct>              <fct>      <fct>          <dbl>      <int> <int>
1 None               Front      4                1.8        140  6300
2 Driver & Passenger Front      6                3.2        200  5500
3 Driver only        Front      6                2.8        172  5500
  Rev.per.mile Man.trans.avail Fuel.tank.capacity Passengers Length Wheelbase
         <int> <fct>                        <dbl>      <int>  <int>     <int>
1         2890 Yes                           13.2          5    177       102
2         2335 Yes                           18            5    195       115
3         2280 Yes                           16.9          5    180       102
  Width Turn.circle Rear.seat.room Luggage.room Weight Origin  Make         
  <int>       <int>          <dbl>        <int>  <int> <fct>   <fct>        
1    68          37           26.5           11   2705 non-USA Acura Integra
2    71          38           30             15   3560 non-USA Acura Legend 
3    67          37           28             14   3375 non-USA Audi 90      
# ℹ 90 more rows
…
